{
	"access_token": "ya29.a0AVvZVsrv_ZWeP2VRbfcf6QdNAQLdj8czoWLs-XSPbmxHOt5GGwKLUn_0K1XJvsQEKG6lU6xzRiqWqpXG19ZMVbMAb-7j9a6Z8CZeSr-m0Y4iQ1wHg3aJPBIJBJkDwVCUxeNeDFcRk3nQKYsE8D1kHwXHuYmtaCgYKATwSARISFQGbdwaI7uBK0P_pADObglE-6nnF_g0163",
	"refresh_token": "1//0gWW7h9X51pPrCgYIARAAGBASNwF-L9IrX1Uh--ztDARkDU7e6c7Gxcip5uzHaq1ar0QrEBn2X0e619NH50jz__bR3f1eJNd19rg",
	"scope": "https://www.googleapis.com/auth/gmail.send",
	"token_type": "Bearer",
	"expiry_date": 1676821012982
}
